Bayesian Multinomial Logistic Regression Initialization and Application: Differential analysis of the distribution of peripheral blood mononuclear cells
…
#Table of age group effects
b1.effects

## # A tibble: 39 x 8
##    coef    cell.type age.group             Mean    SD   zscore     pval      fdr
##    <chr>   <chr>     <chr>                <dbl> <dbl>    <dbl>    <dbl>    <dbl>
##  1 b1[2,1] nCD4TC    Middle.v.Younger -0.168    0.205 -8.17e-1 4.14e- 1 5.22e- 1
##  2 b1[3,1] nCD4TC    Older.v.Younger   0.190    0.240  7.92e-1 4.28e- 1 5.22e- 1
##  3 b1[4,1] nCD4TC    EL.v.Younger     -1.99     0.141 -1.41e+1 0.       0.      
##  4 b1[2,2] mCD4TC    Middle.v.Younger  0.000835 0.207  4.03e-3 9.97e- 1 9.97e- 1
##  5 b1[3,2] mCD4TC    Older.v.Younger   0.0554   0.244  2.27e-1 8.21e- 1 8.42e- 1
##  6 b1[4,2] mCD4TC    EL.v.Younger     -1.15     0.138 -8.30e+0 0.       0.      
##  7 b1[2,3] cCD4TC    Middle.v.Younger  1.34     0.208  6.46e+0 1.04e-10 4.76e-10
##  8 b1[3,3] cCD4TC    Older.v.Younger   2.43     0.202  1.21e+1 0.       0.      
##  9 b1[4,3] cCD4TC    EL.v.Younger      2.81     0.180  1.56e+1 0.       0.      
## 10 b1[2,4] cCD8TC    Middle.v.Younger -0.356    0.197 -1.81e+0 7.09e- 2 1.38e- 1
## #  with 29 more rows
…
#merge dataframes together using join
predicted.prob <- inner_join(predicted.estimate, predicted.credible, by = c("coef", "cell.type", "age.group", "sample.ID", "sex")) %>%
            hablar::convert(fct(age.group, cell.type, sex))

#add back names of age.group and sex levels
levels(predicted.prob$age.group) <- c("Younger", "Middle", "Older", "EL")
levels(predicted.prob$sex) <- c("Male", "Female")

#Table of predicted probabilities           
predicted.prob

## # A tibble: 858 x 9
##    coef     Mean      SD sample.ID  cell.type age.group sex    CI_2.5 CI_97.5
##    <chr>   <dbl>   <dbl> <chr>      <fct>     <fct>     <fct>   <dbl>   <dbl>
##  1 p[1,1]  0.321 0.00515 ILO_H_8163 nCD4TC    Younger   Female  0.311   0.331
##  2 p[2,1]  0.303 0.00385 ILO_H_1876 nCD4TC    Middle    Male    0.296   0.311
##  3 p[3,1]  0.303 0.00385 CT1        nCD4TC    Middle    Male    0.296   0.311
##  4 p[4,1]  0.266 0.00325 CT2        nCD4TC    Older     Female  0.260   0.272
##  5 p[5,1]  0.266 0.00325 CT3        nCD4TC    Older     Female  0.260   0.272
##  6 p[6,1]  0.266 0.00325 CT4        nCD4TC    Older     Female  0.260   0.272
##  7 p[7,1]  0.248 0.00406 CT5        nCD4TC    Older     Male    0.241   0.256
##  8 p[8,1]  0.291 0.00491 s1         nCD4TC    Younger   Male    0.282   0.301
##  9 p[9,1]  0.321 0.00515 s10        nCD4TC    Younger   Female  0.311   0.331
## 10 p[10,1] 0.291 0.00491 s11        nCD4TC    Younger   Male    0.282   0.301
## #  with 848 more rows
…
#extract cell counts per sample across cell types from rjags_data object
cell_counts <- rjags_data$y
names(dimnames(cell_counts)) <- c("sample.ID", "cell.type")

#calculate relative cell type proportions for each sample and join with metadata information for each sample
relative.prop <- as_tibble(cell_counts) %>%
                      full_join(meta.dat, by = "sample.ID") %>%
                      group_by(sample.ID) %>%
                      mutate(proportion = n / sum(n)) %>%
                      hablar::convert(fct(cell.type, age.group, sex))

#Table of relative proportions
relative.prop

## # A tibble: 858 x 6
##    sample.ID  cell.type     n sex    age.group proportion
##    <chr>      <fct>     <int> <fct>  <fct>          <dbl>
##  1 ILO_H_8163 nCD4TC      263 Female Younger        0.134
##  2 ILO_H_1876 nCD4TC      164 Male   Middle         0.111
##  3 CT1        nCD4TC     1335 Male   Middle         0.404
##  4 CT2        nCD4TC      947 Female Older          0.191
##  5 CT3        nCD4TC      712 Female Older          0.278
##  6 CT4        nCD4TC      660 Female Older          0.173
##  7 CT5        nCD4TC     1185 Male   Older          0.308
##  8 s1         nCD4TC      187 Male   Younger        0.406
##  9 s10        nCD4TC      167 Female Younger        0.296
## 10 s11        nCD4TC      270 Male   Younger        0.466
## #  with 848 more rows
…
